…
}) -> sip_log_parsed
```

Let’s see what we have:

``` r
sip_log_parsed
```

    ## # A tibble: 4,266 x 18
    ##    via     content_length from    accept  user_agent to     contact cseq  source
    ##    <chr>   <chr>          <chr>   <chr>   <chr>      <chr>  <chr>   <chr> <chr> 
    ##  1 SIP/2.… 0              "\"sip… applic… friendly-… "\"si… sip:10… 1 OP… 210.1…
    ##  2 SIP/2.… 0              "\"342… applic… friendly-… "\"34… sip:34… 1 RE… 210.1…
    ##  3 SIP/2.… 0              "\"172… applic… friendly-… "\"17… sip:17… 1 RE… 210.1…
    ##  4 SIP/2.… 0              "\"adm… applic… friendly-… "\"ad… sip:ad… 1 RE… 210.1…
    ##  5 SIP/2.… 0              "\"inf… applic… friendly-… "\"in… sip:in… 1 RE… 210.1…
    ##  6 SIP/2.… 0              "\"tes… applic… friendly-… "\"te… sip:te… 1 RE… 210.1…
    ##  7 SIP/2.… 0              "\"pos… applic… friendly-… "\"po… sip:po… 1 RE… 210.1…
    ##  8 SIP/2.… 0              "\"sal… applic… friendly-… "\"sa… sip:sa… 1 RE… 210.1…
    ##  9 SIP/2.… 0              "\"ser… applic… friendly-… "\"se… sip:se… 1 RE… 210.1…
    ## 10 SIP/2.… 0              "\"sup… applic… friendly-… "\"su… sip:su… 1 RE… 210.1…
    ## # … with 4,256 more rows, and 9 more variables: datetime <chr>, request <chr>,
    ## #   contents <chr>, call_id <chr>, max_forwards <chr>, expires <chr>,
    ## #   allow <chr>, authorization <chr>, content_type <chr>
…
``` r
packet_cols <- c("packet_num", "ts", "src", "discard", "dst", "proto", "length", "info")

read_tsv(
  file = "voip-packets.tsv",
  col_names = packet_cols,
  col_types = "ddccccdc"
) %>%
  select(-discard) -> packets

packets
```

    ## # A tibble: 4,447 x 7
    ##    packet_num       ts src      dst     proto length info                       
    ##         <dbl>    <dbl> <chr>    <chr>   <chr>  <dbl> <chr>                      
    ##  1          1  0       172.25.… 172.25… SIP      470 Request: OPTIONS sip:100@1…
    ##  2          2  3.53e-4 172.25.… 172.25… SIP      560 Status: 200 OK |           
    ##  3          3  5.03e+1 172.25.… 172.25… TCP       74 57086 → 80 [SYN] Seq=0 Win…
    ##  4          4  5.03e+1 172.25.… 172.25… TCP       74 80 → 57086 [SYN, ACK] Seq=…
    ##  5          5  5.03e+1 172.25.… 172.25… TCP       66 57086 → 80 [ACK] Seq=1 Ack…
    ##  6          6  5.03e+1 172.25.… 172.25… HTTP     568 GET /maint HTTP/1.1        
    ##  7          7  5.03e+1 172.25.… 172.25… TCP       66 80 → 57086 [ACK] Seq=1 Ack…
    ##  8          8  5.03e+1 172.25.… 172.25… HTTP     786 HTTP/1.1 401 Authorization…
    ##  9          9  5.03e+1 172.25.… 172.25… TCP       66 80 → 57086 [FIN, ACK] Seq=…
    ## 10         10  5.03e+1 172.25.… 172.25… TCP       66 57086 → 80 [ACK] Seq=503 A…
    ## # … with 4,437 more rows
…
Back to the SIP log to see if we can find the identified extensions.
We’ll also process the “`From:`” header just in case we need it.

``` r
sip_log_parsed %>% 
  mutate_at(
    vars(request, from, to),
    ~stri_match_first_regex(.x, "sip:([^@]+)@")[,2]
  ) %>% 
  select(request, from, to)
```

    ## # A tibble: 4,266 x 3
    ##    request    from       to        
    ##    <chr>      <chr>      <chr>     
    ##  1 100        100        100       
    ##  2 3428948518 3428948518 3428948518
    ##  3 1729240413 1729240413 1729240413
    ##  4 admin      admin      admin     
    ##  5 info       info       info      
    ##  6 test       test       test      
    ##  7 postmaster postmaster postmaster
    ##  8 sales      sales      sales     
    ##  9 service    service    service   
    ## 10 support    support    support   
    ## # … with 4,256 more rows
…
``` r
sip_log_parsed %>% 
  mutate_at(
    vars(request, from, to),
    ~stri_match_first_regex(.x, "sip:([^@]+)@")[,2]
  ) %>% 
  filter(
    user_agent == "friendly-scanner"
  ) %>% 
  distinct(to)
```

    ## # A tibble: 2,652 x 1
    ##    to        
    ##    <chr>     
    ##  1 100       
    ##  2 3428948518
    ##  3 1729240413
    ##  4 admin     
    ##  5 info      
    ##  6 test      
    ##  7 postmaster
    ##  8 sales     
    ##  9 service   
    ## 10 support   
    ## # … with 2,642 more rows
…
The summary packet table that `tshark` generates helpfully provides
summary `info` for RTP packets and part of that info is `PT=…` which
indicates the payload type.

``` r
packets %>% 
  filter(proto == "RTP") %>% 
  select(info)
```

    ## # A tibble: 2,988 x 1
    ##    info                                                       
    ##    <chr>                                                      
    ##  1 PT=ITU-T G.711 PCMU, SSRC=0xA254E017, Seq=6402, Time=126160
    ##  2 PT=ITU-T G.711 PCMU, SSRC=0xA254E017, Seq=6403, Time=126320
    ##  3 PT=ITU-T G.711 PCMU, SSRC=0xA254E017, Seq=6404, Time=126480
    ##  4 PT=ITU-T G.711 PCMU, SSRC=0xA254E017, Seq=6405, Time=126640
    ##  5 PT=ITU-T G.711 PCMU, SSRC=0xA254E017, Seq=6406, Time=126800
    ##  6 PT=ITU-T G.711 PCMU, SSRC=0xA254E017, Seq=6407, Time=126960
    ##  7 PT=ITU-T G.711 PCMU, SSRC=0xA254E017, Seq=6408, Time=127120
    ##  8 PT=ITU-T G.711 PCMU, SSRC=0xA254E017, Seq=6409, Time=127280
    ##  9 PT=ITU-T G.711 PCMU, SSRC=0xA254E017, Seq=6410, Time=127440
    ## 10 PT=ITU-T G.711 PCMU, SSRC=0xA254E017, Seq=6411, Time=127600
    ## # … with 2,978 more rows
…
